…
``` r
#Note to self, dates are factors. I don't think we need them, so I won't do anything about them now.

#Change drug to a factor
temp2 <- temp %>% 
  mutate(drug=factor(drug))

# Change it to a tibble for easier processing
data <- as_data_frame(temp2)
data
```

    ## # A tibble: 102 × 7
    ##       ID  time   age   drug censor    entdate    enddate
    ##    <int> <int> <int> <fctr>  <int>     <fctr>     <fctr>
    ## 1      1     5    46      0      1  5/15/1990 10/14/1990
    ## 2      2     6    35      1      0  9/19/1989  3/20/1990
    ## 3      3     8    30      1      1  4/21/1991 12/20/1991
    ## 4      4     3    30      1      1   1/3/1991   4/4/1991
    ## 5      5    22    36      0      1  9/18/1989  7/19/1991
    ## 6      6     1    32      1      0  3/18/1991  4/17/1991
    ## 7      7     7    36      1      1 11/11/1989  6/11/1990
    ## 8      8     9    31      1      1 11/25/1989  8/25/1990
    ## 9      9     3    48      0      1  2/11/1991  5/13/1991
    ## 10    10    12    47      0      1  8/11/1989  8/11/1990
    ## # ... with 92 more rows
…
